^C:\USERS\USER\DESKTOP\PROJECT_MAGSHIMIM\PROJECT\TRIVIA PROJECT\1\DEBUG\DATABASE.OBJ|C:\USERS\USER\DESKTOP\PROJECT_MAGSHIMIM\PROJECT\TRIVIA PROJECT\1\DEBUG\GAME.OBJ|C:\USERS\USER\DESKTOP\PROJECT_MAGSHIMIM\PROJECT\TRIVIA PROJECT\1\DEBUG\HELPER.OBJ|C:\USERS\USER\DESKTOP\PROJECT_MAGSHIMIM\PROJECT\TRIVIA PROJECT\1\DEBUG\MAIN.OBJ|C:\USERS\USER\DESKTOP\PROJECT_MAGSHIMIM\PROJECT\TRIVIA PROJECT\1\DEBUG\QUESTION.OBJ|C:\USERS\USER\DESKTOP\PROJECT_MAGSHIMIM\PROJECT\TRIVIA PROJECT\1\DEBUG\RECIEVEDMESSAGE.OBJ|C:\USERS\USER\DESKTOP\PROJECT_MAGSHIMIM\PROJECT\TRIVIA PROJECT\1\DEBUG\ROOM.OBJ|C:\USERS\USER\DESKTOP\PROJECT_MAGSHIMIM\PROJECT\TRIVIA PROJECT\1\DEBUG\SQLITE3.OBJ|C:\USERS\USER\DESKTOP\PROJECT_MAGSHIMIM\PROJECT\TRIVIA PROJECT\1\DEBUG\TRIVIASERVER.OBJ|C:\USERS\USER\DESKTOP\PROJECT_MAGSHIMIM\PROJECT\TRIVIA PROJECT\1\DEBUG\USER.OBJ|C:\USERS\USER\DESKTOP\PROJECT_MAGSHIMIM\PROJECT\TRIVIA PROJECT\1\DEBUG\VALIDATOR.OBJ
C:\USERS\USER\DESKTOP\PROJECT_MAGSHIMIM\PROJECT\TRIVIA PROJECT\1\DEBUG\1.ILK
C:\USERS\USER\DESKTOP\PROJECT_MAGSHIMIM\PROJECT\TRIVIA PROJECT\1\DEBUG\1.EXE
C:\USERS\USER\DESKTOP\PROJECT_MAGSHIMIM\PROJECT\TRIVIA PROJECT\1\DEBUG\1.PDB
