﻿  TriviaServer.cpp
c:\users\user\desktop\project_magshimim\project\trivia project\1\triviaserver.cpp(7): warning C4244: 'argument': conversion from 'time_t' to 'unsigned int', possible loss of data
  1.vcxproj -> C:\Users\User\Desktop\project_magshimim\project\Trivia Project\1\Debug\1.exe
  1.vcxproj -> C:\Users\User\Desktop\project_magshimim\project\Trivia Project\1\Debug\1.pdb (Partial PDB)
