^C:\USERS\SUPER\DOCUMENTS\MAGSHIMIM\ADVANCED PROGRAMMING - SEMESTER B\TRIVIA PROJECT\PROJECT\PROJECT\TRIVIA PROJECT\1\X64\DEBUG\DATABASE.OBJ|C:\USERS\SUPER\DOCUMENTS\MAGSHIMIM\ADVANCED PROGRAMMING - SEMESTER B\TRIVIA PROJECT\PROJECT\PROJECT\TRIVIA PROJECT\1\X64\DEBUG\GAME.OBJ|C:\USERS\SUPER\DOCUMENTS\MAGSHIMIM\ADVANCED PROGRAMMING - SEMESTER B\TRIVIA PROJECT\PROJECT\PROJECT\TRIVIA PROJECT\1\X64\DEBUG\HELPER.OBJ|C:\USERS\SUPER\DOCUMENTS\MAGSHIMIM\ADVANCED PROGRAMMING - SEMESTER B\TRIVIA PROJECT\PROJECT\PROJECT\TRIVIA PROJECT\1\X64\DEBUG\MAIN.OBJ|C:\USERS\SUPER\DOCUMENTS\MAGSHIMIM\ADVANCED PROGRAMMING - SEMESTER B\TRIVIA PROJECT\PROJECT\PROJECT\TRIVIA PROJECT\1\X64\DEBUG\QUESTION.OBJ|C:\USERS\SUPER\DOCUMENTS\MAGSHIMIM\ADVANCED PROGRAMMING - SEMESTER B\TRIVIA PROJECT\PROJECT\PROJECT\TRIVIA PROJECT\1\X64\DEBUG\RECIEVEDMESSAGE.OBJ|C:\USERS\SUPER\DOCUMENTS\MAGSHIMIM\ADVANCED PROGRAMMING - SEMESTER B\TRIVIA PROJECT\PROJECT\PROJECT\TRIVIA PROJECT\1\X64\DEBUG\ROOM.OBJ|C:\USERS\SUPER\DOCUMENTS\MAGSHIMIM\ADVANCED PROGRAMMING - SEMESTER B\TRIVIA PROJECT\PROJECT\PROJECT\TRIVIA PROJECT\1\X64\DEBUG\SQLITE3.OBJ|C:\USERS\SUPER\DOCUMENTS\MAGSHIMIM\ADVANCED PROGRAMMING - SEMESTER B\TRIVIA PROJECT\PROJECT\PROJECT\TRIVIA PROJECT\1\X64\DEBUG\TRIVIASERVER.OBJ|C:\USERS\SUPER\DOCUMENTS\MAGSHIMIM\ADVANCED PROGRAMMING - SEMESTER B\TRIVIA PROJECT\PROJECT\PROJECT\TRIVIA PROJECT\1\X64\DEBUG\USER.OBJ|C:\USERS\SUPER\DOCUMENTS\MAGSHIMIM\ADVANCED PROGRAMMING - SEMESTER B\TRIVIA PROJECT\PROJECT\PROJECT\TRIVIA PROJECT\1\X64\DEBUG\VALIDATOR.OBJ
C:\USERS\SUPER\DOCUMENTS\MAGSHIMIM\ADVANCED PROGRAMMING - SEMESTER B\TRIVIA PROJECT\PROJECT\PROJECT\TRIVIA PROJECT\1\X64\DEBUG\1.ILK
C:\USERS\SUPER\DOCUMENTS\MAGSHIMIM\ADVANCED PROGRAMMING - SEMESTER B\TRIVIA PROJECT\PROJECT\PROJECT\TRIVIA PROJECT\1\X64\DEBUG\1.EXE
C:\USERS\SUPER\DOCUMENTS\MAGSHIMIM\ADVANCED PROGRAMMING - SEMESTER B\TRIVIA PROJECT\PROJECT\PROJECT\TRIVIA PROJECT\1\X64\DEBUG\1.PDB
