^C:\USERS\SUPER\DOCUMENTS\MAGSHIMIM\ADVANCED PROGRAMMING - SEMESTER B\TRIVIA PROJECT\PROJECT\PROJECT\TRIVIA PROJECT\PROJECT1\SQLITE3.C
/c /ZI /nologo /W3 /WX- /sdl /Od /Oy- /D _MBCS /Gm /EHsc /RTC1 /MDd /GS /fp:precise /Zc:wchar_t /Zc:forScope /Zc:inline /Fo"DEBUG\\" /Fd"DEBUG\VC140.PDB" /Gd /TC /analyze- C:\USERS\SUPER\DOCUMENTS\MAGSHIMIM\ADVANCED PROGRAMMING - SEMESTER B\TRIVIA PROJECT\PROJECT\PROJECT\TRIVIA PROJECT\PROJECT1\SQLITE3.C
^C:\USERS\SUPER\DOCUMENTS\MAGSHIMIM\ADVANCED PROGRAMMING - SEMESTER B\TRIVIA PROJECT\PROJECT\PROJECT\TRIVIA PROJECT\PROJECT1\TEST.CPP
/c /ZI /nologo /W3 /WX- /sdl /Od /Oy- /D _MBCS /Gm /EHsc /RTC1 /MDd /GS /fp:precise /Zc:wchar_t /Zc:forScope /Zc:inline /Fo"DEBUG\\" /Fd"DEBUG\VC140.PDB" /Gd /TP /analyze- C:\USERS\SUPER\DOCUMENTS\MAGSHIMIM\ADVANCED PROGRAMMING - SEMESTER B\TRIVIA PROJECT\PROJECT\PROJECT\TRIVIA PROJECT\PROJECT1\TEST.CPP
^C:\USERS\USER\DESKTOP\PROJECT_MAGSHIMIM\PROJECT\TRIVIA PROJECT\PROJECT1\SQLITE3.C
/c /ZI /nologo /W3 /WX- /sdl /Od /Oy- /D _MBCS /Gm /EHsc /RTC1 /MDd /GS /fp:precise /Zc:wchar_t /Zc:forScope /Zc:inline /Fo"DEBUG\\" /Fd"DEBUG\VC140.PDB" /Gd /TC /analyze- C:\USERS\USER\DESKTOP\PROJECT_MAGSHIMIM\PROJECT\TRIVIA PROJECT\PROJECT1\SQLITE3.C
^C:\USERS\USER\DESKTOP\PROJECT_MAGSHIMIM\PROJECT\TRIVIA PROJECT\PROJECT1\TEST.CPP
/c /ZI /nologo /W3 /WX- /sdl /Od /Oy- /D _MBCS /Gm /EHsc /RTC1 /MDd /GS /fp:precise /Zc:wchar_t /Zc:forScope /Zc:inline /Fo"DEBUG\\" /Fd"DEBUG\VC140.PDB" /Gd /TP /analyze- C:\USERS\USER\DESKTOP\PROJECT_MAGSHIMIM\PROJECT\TRIVIA PROJECT\PROJECT1\TEST.CPP
